Homework 7 – CompBio_Feb
…
Question 9

irisLong <- iris%>%
  pivot_longer(cols=c(Sepal.Length, Sepal.Width, Petal.Length, Petal.Width),
  names_to="Measure", values_to="Value")
str(irisLong)

tibble [600 × 3] (S3: tbl_df/tbl/data.frame)
 $ Species: Factor w/ 3 levels "setosa","versicolor",..: 1 1 1 1 1 1 1 1 1 1 ...
 $ Measure: chr [1:600] "Sepal.Length" "Sepal.Width" "Petal.Length" "Petal.Width" ...
 $ Value  : num [1:600] 5.1 3.5 1.4 0.2 4.9 3 1.4 0.2 4.7 3.2 ...

print(irisLong)

# A tibble: 600 × 3
   Species Measure      Value
   <fct>   <chr>        <dbl>
 1 setosa  Sepal.Length   5.1
 2 setosa  Sepal.Width    3.5
 3 setosa  Petal.Length   1.4
 4 setosa  Petal.Width    0.2
 5 setosa  Sepal.Length   4.9
 6 setosa  Sepal.Width    3  
 7 setosa  Petal.Length   1.4
 8 setosa  Petal.Width    0.2
 9 setosa  Sepal.Length   4.7
10 setosa  Sepal.Width    3.2
# ℹ 590 more rows
…
